module gitlab.com/slon/shad-go

go 1.18

require (
	github.com/ClickHouse/clickhouse-go v1.4.0
	github.com/DATA-DOG/go-sqlmock v1.5.0
	github.com/cenkalti/backoff v2.2.1+incompatible
	github.com/go-redis/redis v6.15.9+incompatible
	github.com/go-redis/redis/v8 v8.11.4
	github.com/go-resty/resty/v2 v2.1.0
	github.com/gofrs/uuid v3.3.0+incompatible
	github.com/golang/mock v1.4.1
	github.com/google/go-cmp v0.5.6
	github.com/google/uuid v1.2.0
	github.com/gorilla/handlers v1.4.2
	github.com/gorilla/mux v1.7.4
	github.com/gorilla/websocket v1.4.2
	github.com/jackc/pgx/v4 v4.6.0
	github.com/jmoiron/sqlx v1.2.0
	github.com/jonboulle/clockwork v0.1.0
	github.com/lib/pq v1.10.0
	github.com/spf13/cobra v1.1.3
	github.com/spf13/pflag v1.0.5
	github.com/stretchr/testify v1.7.0
	github.com/testcontainers/testcontainers-go v0.9.0
	go.uber.org/goleak v1.0.0
	go.uber.org/zap v1.14.0
	golang.org/x/exp v0.0.0-20220328175248-053ad81199eb
	golang.org/x/net v0.0.0-20211015210444-4f30a5c0130f
	golang.org/x/perf v0.0.0-20191209155426-36b577b0eb03
	golang.org/x/sync v0.0.0-20210220032951-036812b2e83c
	golang.org/x/sys v0.0.0-20220209214540-3681064d5158
	golang.org/x/tools v0.1.9
	golang.yandex/hasql v1.0.0
	gopkg.in/src-d/go-git.v4 v4.13.1
	gopkg.in/yaml.v2 v2.4.0
	gopl.io v0.0.0-20200323155855-65c318dde95e
)

require (
	github.com/BurntSushi/toml v0.3.1 // indirect
	github.com/Microsoft/go-winio v0.4.11 // indirect
	github.com/Microsoft/hcsshim v0.8.6 // indirect
	github.com/cespare/xxhash/v2 v2.1.2 // indirect
	github.com/cloudflare/golz4 v0.0.0-20150217214814-ef862a3cdc58 // indirect
	github.com/containerd/containerd v1.4.1 // indirect
	github.com/containerd/continuity v0.0.0-20190426062206-aaeac12a7ffc // indirect
	github.com/davecgh/go-spew v1.1.1 // indirect
	github.com/dgryski/go-rendezvous v0.0.0-20200823014737-9f7001d12a5f // indirect
	github.com/docker/distribution v2.7.1-0.20190205005809-0d3efadf0154+incompatible // indirect
	github.com/docker/docker v17.12.0-ce-rc1.0.20200916142827-bd33bbf0497b+incompatible // indirect
	github.com/docker/go-connections v0.4.0 // indirect
	github.com/docker/go-units v0.3.3 // indirect
	github.com/emirpasic/gods v1.12.0 // indirect
	github.com/gogo/protobuf v1.2.1 // indirect
	github.com/golang/protobuf v1.5.2 // indirect
	github.com/inconshreveable/mousetrap v1.0.0 // indirect
	github.com/jackc/chunkreader/v2 v2.0.1 // indirect
	github.com/jackc/pgconn v1.5.0 // indirect
	github.com/jackc/pgio v1.0.0 // indirect
	github.com/jackc/pgpassfile v1.0.0 // indirect
	github.com/jackc/pgproto3/v2 v2.0.1 // indirect
	github.com/jackc/pgservicefile v0.0.0-20200307190119-3430c5407db8 // indirect
	github.com/jackc/pgtype v1.3.0 // indirect
	github.com/jbenet/go-context v0.0.0-20150711004518-d14ea06fba99 // indirect
	github.com/kevinburke/ssh_config v0.0.0-20190725054713-01f96b0aa0cd // indirect
	github.com/konsorten/go-windows-terminal-sequences v1.0.2 // indirect
	github.com/mitchellh/go-homedir v1.1.0 // indirect
	github.com/opencontainers/go-digest v1.0.0-rc1 // indirect
	github.com/opencontainers/image-spec v1.0.1 // indirect
	github.com/opencontainers/runc v0.1.1 // indirect
	github.com/pkg/errors v0.9.1 // indirect
	github.com/pmezard/go-difflib v1.0.0 // indirect
	github.com/sergi/go-diff v1.0.0 // indirect
	github.com/sirupsen/logrus v1.4.2 // indirect
	github.com/src-d/gcfg v1.4.0 // indirect
	github.com/xanzy/ssh-agent v0.2.1 // indirect
	go.uber.org/atomic v1.5.0 // indirect
	go.uber.org/multierr v1.3.0 // indirect
	go.uber.org/tools v0.0.0-20190618225709-2cfd321de3ee // indirect
	golang.org/x/crypto v0.0.0-20210921155107-089bfa567519 // indirect
	golang.org/x/lint v0.0.0-20190930215403-16217165b5de // indirect
	golang.org/x/mod v0.6.0-dev.0.20211013180041-c96bc1413d57 // indirect
	golang.org/x/text v0.3.7 // indirect
	golang.org/x/xerrors v0.0.0-20200804184101-5ec99f83aff1 // indirect
	google.golang.org/genproto v0.0.0-20191108220845-16a3f7862a1a // indirect
	google.golang.org/grpc v1.21.1 // indirect
	google.golang.org/protobuf v1.26.0 // indirect
	gopkg.in/check.v1 v1.0.0-20190902080502-41f04d3bba15 // indirect
	gopkg.in/src-d/go-billy.v4 v4.3.2 // indirect
	gopkg.in/warnings.v0 v0.1.2 // indirect
	gopkg.in/yaml.v3 v3.0.0-20200313102051-9f266ea9e77c // indirect
	honnef.co/go/tools v0.0.1-2019.2.3 // indirect
)
